%YAML 1.1
%TAG !u! tag:unity3d.com,2011:
--- !u!1001 &100100000
Prefab:
  m_ObjectHideFlags: 1
  serializedVersion: 2
  m_Modification:
    m_TransformParent: {fileID: 0}
    m_Modifications: []
    m_RemovedComponents: []
  m_ParentPrefab: {fileID: 0}
  m_RootGameObject: {fileID: 1189067264602504}
  m_IsPrefabParent: 1
--- !u!1 &1189067264602504
GameObject:
  m_ObjectHideFlags: 0
  m_PrefabParentObject: {fileID: 0}
  m_PrefabInternal: {fileID: 100100000}
  serializedVersion: 5
  m_Component:
  - component: {fileID: 4506388653765386}
  - component: {fileID: 114284238078345220}
  m_Layer: 0
  m_Name: preAgarMesh
  m_TagString: Untagged
  m_Icon: {fileID: 0}
  m_NavMeshLayer: 0
  m_StaticEditorFlags: 0
  m_IsActive: 1
--- !u!4 &4506388653765386
Transform:
  m_ObjectHideFlags: 1
  m_PrefabParentObject: {fileID: 0}
  m_PrefabInternal: {fileID: 100100000}
  m_GameObject: {fileID: 1189067264602504}
  m_LocalRotation: {x: 0, y: 0, z: 0, w: 1}
  m_LocalPosition: {x: 0, y: 0, z: 0}
  m_LocalScale: {x: 1, y: 1, z: 1}
  m_Children: []
  m_Father: {fileID: 0}
  m_RootOrder: 0
  m_LocalEulerAnglesHint: {x: 0, y: 0, z: 0}
--- !u!114 &114284238078345220
MonoBehaviour:
  m_ObjectHideFlags: 1
  m_PrefabParentObject: {fileID: 0}
  m_PrefabInternal: {fileID: 100100000}
  m_GameObject: {fileID: 1189067264602504}
  m_Enabled: 1
  m_EditorHideFlags: 0
  m_Script: {fileID: 11500000, guid: 5f691c59a01675f429ce09efed37c890, type: 3}
  m_Name: 
  m_EditorClassIdentifier: 
  springForce: 20
  damping: 5
  uniformScale: 0
  gameObject: {fileID: 0}
  mesh: {fileID: 0}
  meshRenderer: {fileID: 0}
  meshFilter: {fileID: 0}
  vertices: []
  triangles: 
  colors: []
  uvs: []
  isFillPolygon: 0
  isFillColor: 0
  animationAngle: 0
  animationVertices: []
  orignalVertices: []
  distortVertices: []
  distortVerticesVelocities: []
  animationUVs: []
  animationOuterRadius: 0
  animationInnerRadius: 0
  animationStarrines: 0
  animationNoiseOffset: 0
  animationNoiseSpeed: 0
  animationNoiseFrequency: 0
  animationNoiseAmplitude: 0
